<?xml version="1.0" encoding="utf-8"?>
<!-- Generator: Adobe Illustrator 16.0.0, SVG Export Plug-In . SVG Version: 6.00 Build 0)  -->
<!DOCTYPE svg PUBLIC "-//W3C//DTD SVG 1.1//EN" "http://www.w3.org/Graphics/SVG/1.1/DTD/svg11.dtd">
<svg version="1.1" id="Layer_2_1_" xmlns="http://www.w3.org/2000/svg" xmlns:xlink="http://www.w3.org/1999/xlink" x="0px" y="0px" viewBox="0 0 250 76" enable-background="new 0 0 250 76" xml:space="preserve">
<g>
	<path fill="#575556" d="M122.96,63.982c-0.329,0-0.637,0.053-0.923,0.156c-0.286,0.103-0.535,0.26-0.745,0.467
		c-0.21,0.205-0.376,0.463-0.498,0.768c-0.122,0.307-0.183,0.664-0.183,1.07c0,0.404,0.056,0.756,0.169,1.053
		c0.113,0.297,0.273,0.543,0.48,0.738c0.207,0.195,0.458,0.34,0.75,0.434s0.618,0.141,0.977,0.141c0.098,0,0.202-0.006,0.312-0.016
		c0.109-0.01,0.22-0.025,0.331-0.045c0.111-0.018,0.22-0.041,0.325-0.064s0.2-0.053,0.283-0.082v0.633
		c-0.173,0.068-0.374,0.119-0.602,0.156c-0.228,0.037-0.463,0.055-0.703,0.055c-0.489,0-0.923-0.066-1.301-0.203
		s-0.695-0.33-0.951-0.588c-0.257-0.254-0.451-0.564-0.583-0.934c-0.132-0.367-0.198-0.785-0.198-1.25
		c0-0.457,0.069-0.877,0.209-1.262c0.139-0.383,0.339-0.713,0.602-0.988s0.58-0.49,0.954-0.645c0.373-0.154,0.793-0.23,1.259-0.23
		c0.123,0,0.245,0.006,0.365,0.016c0.12,0.012,0.235,0.025,0.345,0.043c0.109,0.021,0.211,0.045,0.305,0.068
		c0.094,0.027,0.174,0.055,0.242,0.084v0.633c-0.178-0.059-0.372-0.105-0.583-0.146C123.386,64.002,123.174,63.982,122.96,63.982z"
		/>
	<path fill="#575556" d="M127.625,65.715h-0.053c-0.162,0-0.32,0.014-0.475,0.043c-0.156,0.029-0.303,0.074-0.438,0.135
		c-0.138,0.063-0.261,0.135-0.369,0.225c-0.108,0.088-0.201,0.189-0.274,0.311v2.91h-0.681V65.16h0.526l0.133,0.664h0.013
		c0.066-0.107,0.15-0.209,0.248-0.303c0.099-0.096,0.209-0.176,0.332-0.246s0.259-0.125,0.404-0.166
		c0.146-0.039,0.301-0.061,0.461-0.061c0.028,0,0.062,0,0.09,0.002c0.03,0.004,0.06,0.006,0.082,0.01L127.625,65.715L127.625,65.715
		z"/>
	<path fill="#575556" d="M130.332,68.852c0.225,0,0.432-0.018,0.617-0.055c0.185-0.037,0.371-0.088,0.557-0.156v0.568
		c-0.15,0.072-0.334,0.131-0.555,0.172c-0.219,0.043-0.455,0.064-0.707,0.064c-0.299,0-0.58-0.039-0.842-0.113
		c-0.262-0.076-0.488-0.199-0.682-0.369c-0.191-0.17-0.344-0.393-0.449-0.666c-0.109-0.275-0.162-0.605-0.162-0.992
		c0-0.381,0.051-0.711,0.156-0.99c0.104-0.277,0.246-0.514,0.422-0.699c0.176-0.188,0.377-0.328,0.604-0.424
		c0.229-0.094,0.467-0.141,0.715-0.141c0.234,0,0.453,0.039,0.656,0.117c0.203,0.076,0.379,0.199,0.527,0.367
		c0.148,0.166,0.268,0.381,0.354,0.645s0.129,0.58,0.129,0.949c0,0.035,0,0.066,0,0.09c0,0.025-0.002,0.082-0.004,0.17h-2.883
		c0,0.27,0.041,0.492,0.121,0.68s0.189,0.336,0.33,0.451c0.139,0.117,0.301,0.201,0.49,0.254
		C129.912,68.826,130.115,68.852,130.332,68.852z M129.973,65.635c-0.156,0-0.303,0.031-0.438,0.094s-0.254,0.146-0.354,0.25
		c-0.104,0.105-0.186,0.229-0.246,0.371c-0.063,0.144-0.102,0.293-0.115,0.455h2.137c0-0.164-0.023-0.318-0.066-0.459
		c-0.043-0.143-0.104-0.266-0.188-0.371c-0.084-0.104-0.186-0.188-0.309-0.25C130.273,65.666,130.133,65.635,129.973,65.635z"/>
	<path fill="#575556" d="M135.271,68.875h-0.02c-0.059,0.07-0.127,0.139-0.211,0.207c-0.086,0.07-0.186,0.131-0.295,0.186
		c-0.109,0.057-0.23,0.1-0.365,0.129c-0.131,0.033-0.271,0.049-0.422,0.049c-0.201,0-0.387-0.027-0.557-0.09
		c-0.17-0.061-0.313-0.146-0.436-0.264c-0.121-0.115-0.217-0.258-0.283-0.424c-0.066-0.168-0.102-0.355-0.102-0.566
		c0-0.209,0.037-0.395,0.111-0.559c0.076-0.164,0.18-0.303,0.313-0.418c0.137-0.113,0.299-0.201,0.486-0.264
		s0.396-0.092,0.625-0.092c0.217,0.002,0.418,0.021,0.604,0.057c0.184,0.035,0.348,0.08,0.491,0.133h0.019v-0.291
		c0-0.113-0.008-0.215-0.022-0.303s-0.039-0.166-0.074-0.232c-0.075-0.141-0.196-0.258-0.364-0.35
		c-0.166-0.094-0.394-0.139-0.677-0.139c-0.211,0-0.409,0.02-0.596,0.059s-0.371,0.096-0.558,0.166v-0.572
		c0.07-0.035,0.154-0.068,0.25-0.1c0.095-0.029,0.195-0.057,0.302-0.078s0.217-0.039,0.334-0.051c0.116-0.012,0.233-0.02,0.352-0.02
		c0.423,0,0.767,0.074,1.035,0.227c0.269,0.146,0.459,0.348,0.576,0.594c0.045,0.094,0.075,0.195,0.096,0.309
		c0.021,0.114,0.027,0.236,0.027,0.371v2.787h-0.57L135.271,68.875z M135.236,67.504c-0.125-0.035-0.275-0.07-0.447-0.102
		c-0.172-0.033-0.361-0.051-0.568-0.053c-0.289,0-0.514,0.061-0.678,0.184s-0.246,0.313-0.246,0.568
		c0,0.129,0.021,0.238,0.063,0.338c0.041,0.096,0.098,0.176,0.168,0.236c0.072,0.064,0.156,0.111,0.256,0.143
		c0.098,0.031,0.199,0.047,0.313,0.047c0.146,0,0.28-0.021,0.405-0.064c0.127-0.041,0.238-0.092,0.336-0.15
		c0.099-0.058,0.181-0.115,0.248-0.176c0.069-0.059,0.119-0.104,0.151-0.137V67.504L135.236,67.504z"/>
	<path fill="#575556" d="M139.438,69.344c-0.059,0.023-0.146,0.045-0.268,0.066c-0.121,0.02-0.264,0.031-0.432,0.035
		c-0.219,0-0.41-0.027-0.57-0.082c-0.162-0.053-0.295-0.131-0.402-0.232c-0.105-0.102-0.188-0.223-0.24-0.367
		c-0.053-0.143-0.078-0.303-0.078-0.479v-2.539h-0.805V65.16h0.805v-1.143h0.682v1.143h1.248v0.586h-1.248v2.434
		c0,0.098,0.018,0.188,0.043,0.27c0.025,0.08,0.072,0.152,0.131,0.213c0.063,0.063,0.139,0.105,0.229,0.141
		c0.095,0.035,0.206,0.053,0.341,0.053c0.09,0,0.188-0.006,0.287-0.021c0.102-0.014,0.191-0.033,0.277-0.057V69.344L139.438,69.344z
		"/>
	<path fill="#575556" d="M140.387,64.189v-0.76h0.682v0.76H140.387z M140.404,69.336V65.16h0.682v4.176H140.404z"/>
	<path fill="#575556" d="M143.107,65.74h0.014c0.074-0.096,0.16-0.186,0.252-0.27c0.092-0.086,0.195-0.156,0.311-0.223
		c0.113-0.063,0.238-0.109,0.375-0.146c0.137-0.035,0.285-0.054,0.445-0.054c0.191,0,0.369,0.027,0.537,0.08
		c0.166,0.054,0.313,0.138,0.436,0.254c0.123,0.117,0.219,0.271,0.291,0.459s0.107,0.423,0.107,0.697v2.795h-0.68V66.65
		c0-0.359-0.07-0.619-0.209-0.777c-0.141-0.158-0.344-0.238-0.609-0.238c-0.234,0-0.461,0.066-0.682,0.195
		c-0.219,0.131-0.408,0.311-0.566,0.539v2.967h-0.682V65.16h0.527L143.107,65.74z"/>
	<path fill="#575556" d="M148.811,65.051c0.184,0.004,0.34,0.027,0.477,0.07c0.135,0.045,0.252,0.1,0.348,0.164
		c0.1,0.066,0.176,0.133,0.23,0.197c0.056,0.063,0.096,0.115,0.115,0.15H150l0.143-0.475h0.514v4.422
		c0,0.32-0.053,0.604-0.158,0.842s-0.254,0.438-0.443,0.598c-0.19,0.156-0.42,0.273-0.688,0.354
		c-0.27,0.076-0.564,0.115-0.891,0.115c-0.275,0-0.521-0.023-0.738-0.072s-0.387-0.105-0.51-0.174v-0.574
		c0.1,0.039,0.193,0.074,0.291,0.102c0.092,0.029,0.188,0.055,0.289,0.07c0.1,0.02,0.199,0.033,0.305,0.043
		c0.104,0.008,0.219,0.014,0.346,0.014c0.488,0,0.863-0.113,1.125-0.344c0.26-0.229,0.391-0.578,0.391-1.045v-0.559h-0.012
		c-0.15,0.164-0.324,0.287-0.521,0.371c-0.195,0.084-0.424,0.125-0.68,0.125c-0.117,0-0.242-0.014-0.377-0.039
		c-0.135-0.027-0.27-0.072-0.404-0.135c-0.133-0.063-0.264-0.146-0.387-0.25c-0.123-0.104-0.232-0.234-0.326-0.393
		s-0.168-0.342-0.227-0.557c-0.057-0.215-0.084-0.463-0.084-0.742c0-0.393,0.053-0.729,0.158-1.016
		c0.105-0.283,0.244-0.521,0.416-0.709c0.174-0.188,0.371-0.328,0.594-0.42S148.574,65.051,148.811,65.051z M147.664,67.275
		c0,0.328,0.039,0.596,0.119,0.803c0.078,0.209,0.18,0.371,0.301,0.486s0.254,0.193,0.398,0.234
		c0.143,0.043,0.279,0.064,0.408,0.064c0.211,0,0.406-0.045,0.594-0.129c0.184-0.086,0.346-0.199,0.486-0.348v-2.184
		c-0.037-0.053-0.092-0.113-0.158-0.18c-0.066-0.068-0.146-0.131-0.234-0.188c-0.09-0.058-0.191-0.104-0.305-0.146
		c-0.115-0.041-0.24-0.062-0.375-0.062c-0.201,0-0.379,0.041-0.533,0.121s-0.283,0.192-0.387,0.336
		c-0.104,0.146-0.184,0.315-0.234,0.519C147.691,66.809,147.664,67.031,147.664,67.275z"/>
	<path fill="#575556" d="M155.391,65.051c0.184,0.004,0.34,0.027,0.477,0.07c0.135,0.045,0.25,0.1,0.346,0.164
		c0.1,0.066,0.176,0.133,0.23,0.197c0.059,0.063,0.098,0.115,0.115,0.15h0.02l0.141-0.475h0.516v4.422
		c0,0.32-0.053,0.604-0.158,0.842s-0.252,0.438-0.443,0.598c-0.189,0.156-0.42,0.273-0.688,0.354
		c-0.27,0.076-0.564,0.115-0.891,0.115c-0.275,0-0.521-0.023-0.738-0.072s-0.387-0.105-0.51-0.174v-0.574
		c0.1,0.039,0.195,0.074,0.291,0.102c0.094,0.029,0.188,0.055,0.287,0.07c0.102,0.02,0.203,0.033,0.309,0.043
		c0.104,0.008,0.219,0.014,0.344,0.014c0.49,0,0.865-0.113,1.125-0.344c0.262-0.229,0.393-0.578,0.393-1.045v-0.559h-0.014
		c-0.15,0.164-0.322,0.287-0.521,0.371c-0.197,0.084-0.424,0.125-0.678,0.125c-0.117,0-0.244-0.014-0.379-0.039
		c-0.135-0.027-0.27-0.072-0.404-0.135c-0.134-0.063-0.264-0.146-0.387-0.25c-0.123-0.104-0.23-0.234-0.324-0.393
		s-0.17-0.342-0.227-0.557s-0.086-0.463-0.086-0.742c0-0.393,0.053-0.729,0.158-1.016c0.104-0.283,0.244-0.521,0.418-0.709
		c0.172-0.188,0.369-0.328,0.592-0.42S155.152,65.051,155.391,65.051z M154.242,67.275c0,0.328,0.041,0.596,0.119,0.803
		c0.08,0.209,0.18,0.371,0.301,0.486c0.123,0.115,0.254,0.193,0.398,0.234c0.143,0.043,0.277,0.064,0.406,0.064
		c0.213,0,0.408-0.045,0.596-0.129c0.184-0.086,0.348-0.199,0.486-0.348v-2.184c-0.037-0.053-0.092-0.113-0.156-0.18
		c-0.068-0.068-0.146-0.131-0.236-0.188c-0.088-0.058-0.191-0.104-0.305-0.146c-0.115-0.041-0.238-0.062-0.373-0.062
		c-0.203,0-0.381,0.041-0.535,0.121c-0.152,0.08-0.281,0.192-0.387,0.336c-0.104,0.146-0.184,0.315-0.234,0.519
		C154.27,66.809,154.242,67.031,154.242,67.275z"/>
	<path fill="#575556" d="M160.531,68.852c0.225,0,0.432-0.018,0.617-0.055c0.185-0.037,0.371-0.088,0.557-0.156v0.568
		c-0.15,0.072-0.334,0.131-0.555,0.172c-0.219,0.043-0.455,0.064-0.707,0.064c-0.299,0-0.58-0.039-0.842-0.113
		c-0.264-0.076-0.488-0.199-0.684-0.369c-0.189-0.17-0.342-0.393-0.447-0.666c-0.109-0.275-0.162-0.605-0.162-0.992
		c0-0.381,0.051-0.711,0.154-0.99c0.104-0.277,0.246-0.514,0.424-0.699c0.176-0.188,0.377-0.328,0.604-0.424
		c0.229-0.094,0.467-0.141,0.715-0.141c0.234,0,0.453,0.039,0.656,0.117c0.203,0.076,0.379,0.199,0.527,0.367
		c0.148,0.166,0.268,0.381,0.354,0.645s0.129,0.58,0.129,0.949c0,0.035,0,0.066,0,0.09c0,0.025-0.002,0.082-0.004,0.17h-2.883
		c0,0.27,0.041,0.492,0.121,0.68s0.188,0.336,0.33,0.451c0.139,0.117,0.301,0.201,0.488,0.254S160.314,68.852,160.531,68.852z
		 M160.172,65.635c-0.156,0-0.303,0.031-0.438,0.094s-0.254,0.146-0.354,0.25c-0.103,0.105-0.185,0.229-0.246,0.371
		c-0.062,0.144-0.1,0.293-0.114,0.455h2.138c0-0.164-0.023-0.318-0.066-0.459c-0.043-0.143-0.104-0.266-0.188-0.371
		c-0.084-0.104-0.187-0.188-0.31-0.25C160.473,65.666,160.332,65.635,160.172,65.635z"/>
	<path fill="#575556" d="M163.686,65.74h0.016c0.074-0.096,0.158-0.186,0.252-0.27c0.094-0.086,0.193-0.156,0.313-0.223
		c0.111-0.063,0.238-0.109,0.375-0.146c0.137-0.035,0.283-0.054,0.445-0.054c0.188,0,0.369,0.027,0.535,0.08
		c0.168,0.054,0.313,0.138,0.438,0.254c0.123,0.117,0.221,0.271,0.293,0.459c0.068,0.188,0.105,0.423,0.105,0.697v2.795h-0.684
		V66.65c0-0.359-0.068-0.619-0.209-0.777c-0.139-0.158-0.342-0.238-0.607-0.238c-0.232,0-0.461,0.066-0.682,0.195
		c-0.221,0.131-0.408,0.311-0.566,0.539v2.967h-0.682V65.16h0.527L163.686,65.74z"/>
	<path fill="#575556" d="M169.754,68.852c0.227,0,0.432-0.018,0.619-0.055c0.186-0.037,0.371-0.088,0.555-0.156v0.568
		c-0.148,0.072-0.334,0.131-0.553,0.172c-0.221,0.043-0.457,0.064-0.709,0.064c-0.299,0-0.578-0.039-0.84-0.113
		c-0.264-0.076-0.49-0.199-0.682-0.369c-0.192-0.17-0.344-0.393-0.451-0.666c-0.107-0.275-0.162-0.605-0.162-0.992
		c0-0.381,0.053-0.711,0.158-0.99c0.104-0.277,0.244-0.514,0.42-0.699c0.176-0.188,0.377-0.328,0.604-0.424
		c0.229-0.094,0.469-0.141,0.717-0.141c0.232,0,0.449,0.039,0.652,0.117c0.203,0.076,0.381,0.199,0.527,0.367
		c0.148,0.166,0.268,0.381,0.354,0.645c0.086,0.264,0.13,0.58,0.13,0.949c0,0.035,0,0.066,0,0.09c0,0.025-0.003,0.082-0.007,0.17
		h-2.883c0,0.27,0.041,0.492,0.121,0.68c0.082,0.188,0.19,0.336,0.329,0.451c0.14,0.117,0.304,0.201,0.49,0.254
		C169.334,68.827,169.537,68.852,169.754,68.852z M169.396,65.635c-0.158,0-0.307,0.031-0.439,0.094
		c-0.135,0.063-0.252,0.146-0.354,0.25c-0.104,0.105-0.184,0.229-0.244,0.371c-0.063,0.144-0.104,0.293-0.117,0.455h2.137
		c0-0.164-0.021-0.318-0.064-0.459c-0.043-0.143-0.104-0.266-0.188-0.371c-0.082-0.104-0.188-0.188-0.309-0.25
		C169.697,65.666,169.557,65.635,169.396,65.635z"/>
	<path fill="#575556" d="M174.541,65.715h-0.053c-0.162,0-0.32,0.014-0.475,0.043c-0.156,0.029-0.303,0.074-0.438,0.135
		c-0.138,0.063-0.261,0.135-0.369,0.225c-0.108,0.088-0.201,0.189-0.274,0.311v2.91h-0.681V65.16h0.526l0.132,0.664h0.014
		c0.065-0.107,0.15-0.209,0.248-0.303c0.099-0.096,0.209-0.176,0.332-0.246s0.259-0.125,0.404-0.166
		c0.146-0.039,0.301-0.061,0.461-0.061c0.028,0,0.062,0,0.09,0.002c0.031,0.004,0.06,0.006,0.082,0.01L174.541,65.715
		L174.541,65.715z"/>
	<path fill="#575556" d="M177.709,68.875h-0.018c-0.055,0.07-0.125,0.139-0.211,0.207c-0.084,0.07-0.186,0.131-0.293,0.186
		c-0.113,0.057-0.234,0.1-0.365,0.129c-0.133,0.033-0.273,0.049-0.422,0.049c-0.203,0-0.391-0.027-0.559-0.09
		c-0.168-0.061-0.313-0.146-0.436-0.264c-0.121-0.115-0.217-0.258-0.283-0.424c-0.064-0.168-0.102-0.355-0.102-0.566
		c0-0.209,0.037-0.395,0.111-0.559s0.18-0.303,0.314-0.418c0.135-0.113,0.297-0.201,0.484-0.264s0.396-0.092,0.627-0.092
		c0.217,0.002,0.418,0.021,0.602,0.057c0.186,0.035,0.35,0.08,0.492,0.133h0.018v-0.291c0-0.113-0.008-0.215-0.021-0.303
		c-0.016-0.088-0.039-0.166-0.072-0.232c-0.076-0.141-0.197-0.258-0.365-0.35c-0.166-0.094-0.395-0.139-0.676-0.139
		c-0.211,0-0.41,0.02-0.598,0.059s-0.371,0.096-0.557,0.166v-0.572c0.07-0.035,0.152-0.068,0.248-0.1
		c0.096-0.029,0.195-0.057,0.301-0.078c0.106-0.021,0.217-0.039,0.334-0.051s0.234-0.02,0.354-0.02c0.422,0,0.768,0.074,1.033,0.227
		c0.27,0.146,0.461,0.348,0.578,0.594c0.045,0.094,0.076,0.195,0.096,0.309s0.027,0.236,0.027,0.371v2.787h-0.568L177.709,68.875z
		 M177.674,67.504c-0.125-0.035-0.273-0.07-0.445-0.102c-0.172-0.033-0.359-0.051-0.566-0.053c-0.289,0-0.518,0.061-0.682,0.184
		c-0.162,0.123-0.244,0.313-0.244,0.568c0,0.129,0.021,0.238,0.063,0.338c0.041,0.096,0.1,0.176,0.17,0.236
		c0.07,0.064,0.154,0.111,0.256,0.143c0.096,0.031,0.199,0.047,0.313,0.047c0.145,0,0.281-0.021,0.406-0.064
		c0.125-0.041,0.234-0.092,0.334-0.15c0.098-0.058,0.182-0.115,0.25-0.176c0.066-0.059,0.119-0.104,0.148-0.137L177.674,67.504
		L177.674,67.504z"/>
	<path fill="#575556" d="M181.875,69.344c-0.059,0.023-0.148,0.045-0.268,0.066c-0.121,0.02-0.266,0.031-0.434,0.035
		c-0.219,0-0.408-0.027-0.568-0.082c-0.162-0.053-0.295-0.131-0.402-0.232s-0.188-0.223-0.24-0.367
		c-0.053-0.143-0.078-0.303-0.078-0.479v-2.539h-0.805V65.16h0.805v-1.143h0.68v1.143h1.248v0.586h-1.248v2.434
		c0,0.098,0.018,0.188,0.043,0.27c0.027,0.08,0.072,0.152,0.131,0.213c0.063,0.063,0.139,0.105,0.23,0.141
		c0.094,0.035,0.207,0.053,0.34,0.053c0.09,0,0.188-0.006,0.287-0.021c0.102-0.014,0.193-0.033,0.279-0.057V69.344L181.875,69.344z"
		/>
	<path fill="#575556" d="M182.824,64.189v-0.76h0.682v0.76H182.824z M182.842,69.336V65.16h0.682v4.176H182.842z"/>
	<path fill="#575556" d="M188.607,67.252c0,0.328-0.047,0.627-0.143,0.896c-0.094,0.269-0.225,0.5-0.396,0.691
		s-0.379,0.342-0.623,0.445c-0.241,0.104-0.516,0.156-0.815,0.156c-0.312,0-0.588-0.053-0.832-0.156
		c-0.246-0.104-0.452-0.254-0.625-0.445c-0.172-0.191-0.303-0.424-0.394-0.691c-0.092-0.271-0.137-0.568-0.137-0.896
		c0-0.33,0.047-0.631,0.142-0.9c0.094-0.269,0.228-0.5,0.397-0.691c0.17-0.193,0.379-0.346,0.623-0.449
		c0.243-0.104,0.519-0.158,0.819-0.158c0.308,0,0.584,0.055,0.83,0.158s0.453,0.256,0.623,0.449c0.17,0.191,0.301,0.424,0.394,0.691
		C188.563,66.621,188.607,66.922,188.607,67.252z M187.896,67.252c0-0.258-0.031-0.486-0.096-0.688
		c-0.064-0.203-0.15-0.371-0.264-0.51c-0.113-0.141-0.248-0.244-0.401-0.316c-0.155-0.072-0.325-0.107-0.511-0.107
		c-0.188,0-0.354,0.035-0.51,0.107s-0.289,0.178-0.402,0.316c-0.111,0.137-0.199,0.309-0.264,0.51s-0.098,0.43-0.098,0.688
		c0,0.256,0.033,0.482,0.098,0.684c0.063,0.203,0.148,0.371,0.266,0.508c0.113,0.141,0.248,0.242,0.404,0.314
		c0.152,0.072,0.322,0.107,0.51,0.107c0.186,0,0.354-0.035,0.51-0.107c0.152-0.072,0.285-0.176,0.398-0.314
		c0.109-0.137,0.197-0.307,0.265-0.508C187.865,67.734,187.896,67.508,187.896,67.252z"/>
	<path fill="#575556" d="M190.344,65.74h0.014c0.076-0.096,0.16-0.186,0.252-0.27c0.096-0.086,0.195-0.156,0.313-0.223
		c0.113-0.063,0.24-0.109,0.375-0.146c0.139-0.035,0.285-0.054,0.447-0.054c0.188,0,0.367,0.027,0.533,0.08
		c0.168,0.054,0.313,0.138,0.438,0.254c0.123,0.117,0.223,0.271,0.293,0.459s0.107,0.423,0.107,0.697v2.795h-0.684V66.65
		c0-0.359-0.07-0.619-0.209-0.777s-0.342-0.238-0.607-0.238c-0.234,0-0.463,0.066-0.682,0.195c-0.221,0.131-0.41,0.311-0.566,0.539
		v2.967h-0.682V65.16h0.527L190.344,65.74z"/>
	<path fill="#575556" d="M194.918,66.273c0,0.111,0.025,0.207,0.074,0.281c0.049,0.07,0.113,0.131,0.195,0.178
		c0.082,0.045,0.176,0.082,0.283,0.109c0.105,0.029,0.219,0.059,0.334,0.08c0.154,0.035,0.307,0.072,0.443,0.115
		c0.143,0.043,0.271,0.105,0.393,0.189c0.115,0.086,0.213,0.199,0.287,0.348c0.07,0.146,0.107,0.332,0.107,0.563
		c0,0.211-0.041,0.396-0.123,0.563c-0.082,0.16-0.197,0.299-0.35,0.406c-0.146,0.109-0.328,0.193-0.535,0.25
		c-0.209,0.059-0.438,0.086-0.686,0.086c-0.152,0-0.291-0.008-0.416-0.021c-0.125-0.02-0.234-0.037-0.33-0.063
		c-0.094-0.024-0.176-0.051-0.244-0.075c-0.064-0.027-0.123-0.052-0.166-0.074v-0.572c0.172,0.07,0.346,0.128,0.516,0.169
		s0.354,0.062,0.563,0.062c0.16,0,0.307-0.015,0.436-0.043c0.129-0.029,0.24-0.074,0.334-0.132s0.166-0.129,0.217-0.215
		s0.074-0.188,0.074-0.302c0-0.116-0.021-0.215-0.068-0.291c-0.045-0.075-0.107-0.139-0.186-0.188
		c-0.078-0.051-0.168-0.092-0.271-0.121c-0.102-0.033-0.209-0.063-0.318-0.09c-0.148-0.031-0.297-0.068-0.447-0.113
		c-0.15-0.043-0.289-0.104-0.412-0.186c-0.123-0.08-0.223-0.188-0.299-0.324c-0.076-0.135-0.115-0.311-0.115-0.523
		c0-0.219,0.039-0.41,0.119-0.568c0.078-0.162,0.186-0.295,0.32-0.4c0.133-0.105,0.291-0.184,0.471-0.236
		c0.178-0.053,0.367-0.08,0.566-0.08c0.229,0,0.443,0.021,0.645,0.066c0.197,0.043,0.377,0.1,0.537,0.166v0.58
		c-0.172-0.066-0.346-0.121-0.521-0.164c-0.175-0.043-0.354-0.064-0.541-0.068c-0.158,0-0.293,0.016-0.404,0.049
		c-0.109,0.031-0.203,0.076-0.271,0.133c-0.07,0.061-0.123,0.125-0.154,0.203C194.938,66.094,194.918,66.18,194.918,66.273z"/>
	<path fill="#575556" d="M202.314,68.875h-0.02c-0.059,0.07-0.127,0.139-0.211,0.207c-0.086,0.07-0.186,0.131-0.295,0.186
		c-0.109,0.057-0.23,0.1-0.365,0.129c-0.131,0.033-0.271,0.049-0.422,0.049c-0.201,0-0.387-0.027-0.555-0.09
		c-0.172-0.061-0.314-0.146-0.438-0.264c-0.121-0.115-0.217-0.258-0.283-0.424c-0.066-0.168-0.102-0.355-0.102-0.566
		c0-0.209,0.037-0.395,0.111-0.559c0.076-0.164,0.18-0.303,0.313-0.418c0.137-0.113,0.299-0.201,0.486-0.264
		s0.396-0.092,0.625-0.092c0.217,0.002,0.418,0.021,0.604,0.057c0.185,0.035,0.348,0.08,0.491,0.133h0.019v-0.291
		c0-0.113-0.008-0.215-0.022-0.303s-0.039-0.166-0.074-0.232c-0.075-0.141-0.196-0.258-0.364-0.35
		c-0.166-0.094-0.394-0.139-0.677-0.139c-0.211,0-0.409,0.02-0.596,0.059s-0.371,0.096-0.558,0.166v-0.572
		c0.07-0.035,0.154-0.068,0.25-0.1c0.095-0.029,0.195-0.057,0.302-0.078s0.217-0.039,0.334-0.051c0.116-0.012,0.233-0.02,0.353-0.02
		c0.422,0,0.766,0.074,1.034,0.227c0.269,0.146,0.459,0.348,0.576,0.594c0.045,0.094,0.076,0.195,0.096,0.309
		c0.021,0.114,0.027,0.236,0.027,0.371v2.787h-0.57L202.314,68.875z M202.279,67.504c-0.125-0.035-0.275-0.07-0.447-0.102
		c-0.172-0.033-0.361-0.051-0.568-0.053c-0.289,0-0.514,0.061-0.678,0.184s-0.246,0.313-0.246,0.568
		c0,0.129,0.021,0.238,0.063,0.338c0.041,0.096,0.098,0.176,0.168,0.236c0.072,0.064,0.156,0.111,0.256,0.143
		c0.098,0.031,0.199,0.047,0.313,0.047c0.146,0,0.28-0.021,0.405-0.064c0.127-0.041,0.238-0.092,0.336-0.15
		c0.099-0.058,0.181-0.115,0.248-0.176c0.07-0.059,0.119-0.104,0.151-0.137V67.504L202.279,67.504z"/>
	<path fill="#575556" d="M204.766,66.273c0,0.111,0.025,0.207,0.074,0.281c0.049,0.07,0.113,0.131,0.195,0.178
		c0.082,0.045,0.176,0.082,0.283,0.109c0.105,0.029,0.219,0.059,0.334,0.08c0.156,0.035,0.307,0.072,0.445,0.115
		c0.141,0.043,0.271,0.105,0.391,0.189c0.117,0.086,0.213,0.199,0.287,0.348c0.072,0.146,0.107,0.332,0.107,0.563
		c0,0.211-0.039,0.396-0.121,0.563c-0.082,0.16-0.197,0.299-0.35,0.406c-0.146,0.109-0.328,0.193-0.535,0.25
		c-0.209,0.059-0.438,0.086-0.688,0.086c-0.15,0-0.291-0.008-0.416-0.021c-0.125-0.02-0.232-0.037-0.33-0.063
		c-0.094-0.024-0.176-0.051-0.242-0.075c-0.064-0.027-0.123-0.052-0.166-0.074v-0.572c0.172,0.07,0.344,0.128,0.514,0.169
		c0.172,0.041,0.354,0.062,0.563,0.062c0.162,0,0.307-0.015,0.436-0.043c0.129-0.029,0.24-0.074,0.334-0.132
		s0.166-0.129,0.217-0.215s0.074-0.188,0.074-0.302c0-0.116-0.021-0.215-0.068-0.291c-0.045-0.075-0.105-0.139-0.186-0.188
		c-0.078-0.051-0.168-0.092-0.27-0.121c-0.104-0.033-0.209-0.063-0.32-0.09c-0.148-0.031-0.297-0.068-0.447-0.113
		c-0.15-0.043-0.289-0.104-0.412-0.186c-0.123-0.08-0.223-0.188-0.299-0.324c-0.076-0.135-0.115-0.311-0.115-0.523
		c0-0.219,0.039-0.41,0.119-0.568c0.078-0.162,0.186-0.295,0.32-0.4c0.134-0.105,0.291-0.184,0.471-0.236
		c0.178-0.053,0.367-0.08,0.566-0.08c0.23,0,0.445,0.021,0.645,0.066c0.197,0.043,0.377,0.1,0.537,0.166v0.58
		c-0.172-0.066-0.346-0.121-0.521-0.164c-0.174-0.043-0.354-0.064-0.541-0.068c-0.156,0-0.293,0.016-0.402,0.049
		c-0.109,0.031-0.203,0.076-0.271,0.133c-0.072,0.061-0.123,0.125-0.156,0.203S204.766,66.18,204.766,66.273z"/>
	<path fill="#575556" d="M211.617,67.199c0,0.291-0.027,0.547-0.086,0.771c-0.057,0.225-0.133,0.42-0.227,0.588
		c-0.096,0.166-0.205,0.307-0.332,0.418c-0.125,0.111-0.26,0.205-0.395,0.271c-0.137,0.066-0.271,0.119-0.412,0.146
		c-0.143,0.031-0.271,0.047-0.396,0.047c-0.256,0-0.479-0.041-0.668-0.125c-0.188-0.084-0.355-0.207-0.508-0.369h-0.012v2.43h-0.668
		V65.16h0.514l0.146,0.475h0.014c0.037-0.059,0.09-0.115,0.146-0.17c0.062-0.057,0.142-0.115,0.242-0.18
		c0.103-0.063,0.224-0.117,0.364-0.164c0.144-0.047,0.298-0.07,0.464-0.07c0.233,0,0.461,0.039,0.68,0.119
		c0.22,0.078,0.41,0.205,0.578,0.377c0.166,0.174,0.302,0.395,0.401,0.666C211.566,66.484,211.617,66.813,211.617,67.199z
		 M210.906,67.209c0-0.244-0.025-0.461-0.078-0.654c-0.051-0.193-0.129-0.359-0.232-0.496c-0.102-0.135-0.229-0.24-0.379-0.313
		c-0.15-0.074-0.324-0.111-0.521-0.111c-0.143,0-0.271,0.02-0.387,0.059c-0.117,0.037-0.223,0.086-0.314,0.146
		s-0.178,0.121-0.244,0.188c-0.064,0.066-0.121,0.127-0.162,0.182v2.186c0.146,0.146,0.311,0.262,0.492,0.348
		c0.186,0.084,0.383,0.127,0.594,0.127c0.133,0,0.27-0.023,0.412-0.072s0.275-0.135,0.398-0.26c0.121-0.125,0.225-0.293,0.305-0.508
		C210.865,67.813,210.906,67.539,210.906,67.209z"/>
	<path fill="#575556" d="M212.721,64.189v-0.76h0.682v0.76H212.721z M212.738,69.336V65.16h0.682v4.176H212.738z"/>
	<path fill="#575556" d="M217.072,65.715h-0.053c-0.162,0-0.32,0.014-0.477,0.043s-0.303,0.074-0.438,0.135
		c-0.138,0.063-0.26,0.135-0.369,0.225c-0.11,0.088-0.202,0.189-0.274,0.311v2.91h-0.683V65.16h0.527l0.133,0.664h0.015
		c0.065-0.107,0.147-0.209,0.248-0.303c0.098-0.096,0.209-0.176,0.332-0.246s0.256-0.125,0.403-0.166
		c0.146-0.039,0.299-0.061,0.461-0.061c0.028,0,0.06,0,0.09,0.002c0.031,0.004,0.058,0.006,0.082,0.01v0.653L217.072,65.715
		L217.072,65.715z"/>
	<path fill="#575556" d="M217.822,64.189v-0.76h0.682v0.76H217.822z M217.84,69.336V65.16h0.682v4.176H217.84z"/>
	<path fill="#575556" d="M220.543,65.74h0.014c0.076-0.096,0.16-0.186,0.252-0.27c0.094-0.086,0.195-0.156,0.313-0.223
		c0.111-0.063,0.238-0.109,0.375-0.146c0.137-0.035,0.283-0.054,0.445-0.054c0.189,0,0.369,0.027,0.535,0.08
		c0.168,0.054,0.313,0.138,0.438,0.254c0.123,0.117,0.221,0.271,0.293,0.459c0.068,0.188,0.105,0.423,0.105,0.697v2.795h-0.682
		V66.65c0-0.359-0.07-0.619-0.209-0.777s-0.342-0.238-0.609-0.238c-0.232,0-0.461,0.066-0.68,0.195
		c-0.221,0.131-0.41,0.311-0.568,0.539v2.967h-0.68V65.16h0.527L220.543,65.74z"/>
	<path fill="#575556" d="M226.248,65.051c0.182,0.004,0.34,0.027,0.475,0.07c0.135,0.045,0.25,0.1,0.346,0.164
		c0.1,0.066,0.176,0.133,0.232,0.197c0.057,0.063,0.096,0.115,0.115,0.15h0.018l0.143-0.475h0.514v4.422
		c0,0.32-0.053,0.604-0.156,0.842c-0.105,0.238-0.252,0.438-0.443,0.598c-0.189,0.156-0.42,0.273-0.688,0.354
		c-0.269,0.076-0.563,0.115-0.892,0.115c-0.274,0-0.521-0.023-0.738-0.072c-0.217-0.049-0.387-0.105-0.51-0.174v-0.574
		c0.101,0.039,0.196,0.074,0.291,0.102c0.094,0.029,0.188,0.055,0.289,0.07c0.1,0.02,0.202,0.033,0.307,0.043
		c0.104,0.008,0.22,0.014,0.345,0.014c0.489,0,0.864-0.113,1.125-0.344c0.263-0.229,0.394-0.578,0.394-1.045v-0.559h-0.015
		c-0.149,0.164-0.321,0.287-0.521,0.371c-0.196,0.084-0.424,0.125-0.678,0.125c-0.117,0-0.244-0.014-0.38-0.039
		c-0.135-0.027-0.271-0.072-0.403-0.135c-0.135-0.063-0.265-0.146-0.387-0.25c-0.123-0.104-0.23-0.234-0.324-0.393
		c-0.095-0.158-0.17-0.342-0.228-0.557s-0.086-0.463-0.086-0.742c0-0.393,0.053-0.729,0.157-1.016
		c0.104-0.283,0.244-0.521,0.418-0.709c0.173-0.188,0.369-0.328,0.593-0.42C225.781,65.096,226.01,65.051,226.248,65.051z
		 M225.1,67.275c0,0.328,0.041,0.596,0.119,0.803c0.08,0.209,0.18,0.371,0.301,0.486c0.123,0.115,0.254,0.193,0.398,0.234
		c0.143,0.043,0.279,0.064,0.408,0.064c0.211,0,0.408-0.045,0.594-0.129c0.184-0.086,0.348-0.199,0.488-0.348v-2.184
		c-0.039-0.053-0.092-0.113-0.158-0.18c-0.068-0.068-0.146-0.131-0.236-0.188c-0.088-0.058-0.189-0.104-0.305-0.146
		s-0.238-0.062-0.373-0.062c-0.203,0-0.381,0.041-0.535,0.121c-0.152,0.08-0.281,0.192-0.387,0.336
		c-0.104,0.146-0.182,0.315-0.234,0.519C225.127,66.809,225.1,67.031,225.1,67.275z"/>
	<path fill="#575556" d="M231.252,69.336v-6.363h0.682v6.363H231.252z"/>
	<path fill="#575556" d="M233.322,64.189v-0.76h0.682v0.76H233.322z M233.34,69.336V65.16h0.682v4.176H233.34z"/>
	<path fill="#575556" d="M237.805,63.508c-0.088-0.018-0.184-0.029-0.289-0.039c-0.104-0.008-0.197-0.014-0.271-0.014
		c-0.152,0-0.289,0.02-0.41,0.059c-0.123,0.037-0.227,0.098-0.309,0.182s-0.145,0.193-0.188,0.33
		c-0.045,0.137-0.066,0.303-0.066,0.494v0.643h1.244v0.586h-1.244v3.59h-0.682v-3.59h-0.734V65.16h0.734v-0.637
		c0-0.301,0.041-0.559,0.121-0.764s0.191-0.377,0.332-0.51c0.141-0.135,0.305-0.23,0.496-0.295c0.189-0.063,0.396-0.096,0.615-0.096
		c0.141,0,0.27,0.008,0.389,0.021s0.205,0.031,0.262,0.049V63.508z"/>
	<path fill="#575556" d="M240.225,68.852c0.229,0,0.434-0.018,0.619-0.055s0.371-0.088,0.555-0.156v0.568
		c-0.146,0.072-0.334,0.131-0.553,0.172c-0.221,0.043-0.457,0.064-0.709,0.064c-0.299,0-0.578-0.039-0.84-0.113
		c-0.264-0.076-0.49-0.199-0.682-0.369c-0.192-0.17-0.342-0.393-0.451-0.666c-0.107-0.275-0.162-0.605-0.162-0.992
		c0-0.381,0.053-0.711,0.158-0.99c0.105-0.277,0.244-0.514,0.42-0.699c0.176-0.188,0.377-0.328,0.605-0.424
		c0.228-0.094,0.467-0.141,0.715-0.141c0.232,0,0.451,0.039,0.654,0.117c0.201,0.076,0.381,0.199,0.527,0.367
		c0.146,0.166,0.268,0.381,0.354,0.645s0.129,0.58,0.129,0.949c0,0.035,0,0.066,0,0.09c0,0.025-0.002,0.082-0.006,0.17h-2.883
		c0,0.27,0.04,0.492,0.12,0.68c0.082,0.188,0.19,0.336,0.33,0.451c0.14,0.117,0.304,0.201,0.49,0.254
		C239.805,68.827,240.008,68.852,240.225,68.852z M239.867,65.635c-0.158,0-0.305,0.031-0.439,0.094s-0.252,0.146-0.354,0.25
		c-0.102,0.105-0.182,0.229-0.244,0.371c-0.063,0.144-0.102,0.293-0.117,0.455h2.137c0-0.164-0.021-0.318-0.063-0.459
		c-0.043-0.143-0.104-0.266-0.188-0.371c-0.082-0.104-0.188-0.188-0.309-0.25C240.168,65.666,240.027,65.635,239.867,65.635z"/>
	<path fill="#086FAF" d="M52.908,35.159l8.044-15.802l13.431,26.749c1.239,0.94,4.04,2.903,7.437,4.297L60.904,8.98L47.911,34.81
		C49.587,34.781,51.262,34.886,52.908,35.159"/>
	<path fill="#086FAF" d="M35.834,58.818h5.03l0.261-0.512c-0.596-0.732-2.375-2.897-3.138-3.768L35.834,58.818z"/>
	<path fill="#086FAF" d="M42.196,46.165c0.766,1.417,1.292,3.151,1.209,5.215c-0.002,0.029-0.12,1.664-0.618,3.663l7.591-14.916
		c-1.472-0.212-3.118-0.359-4.937-0.402L42.196,46.165z"/>
	<path fill="#086FAF" d="M82.071,57.208l-0.25-0.078c-0.763-0.235-1.542-0.524-2.344-0.87l1.287,2.559h5.306l-0.39-0.773
		c-0.088-0.008-0.172-0.012-0.259-0.021C84.288,57.889,83.163,57.54,82.071,57.208"/>
	<path fill="#009749" d="M101.953,42.372c-0.145-0.938-0.452-1.955-0.861-2.858c-0.344-0.758-0.826-1.495-1.394-2.146
		c-2.099-2.384-5.301-3.938-8.447-5.265c-0.577-0.242-1.198-0.451-1.851-0.672c-0.911-0.311-1.855-0.626-2.671-1.045
		c-1.752-0.896-3-2.12-3.804-3.74c-0.356-0.71-0.531-1.314-0.541-1.852c-0.104-5.698,5.311-6.791,5.37-6.802
		c5.455-0.664,11.186,1.572,12.289,2.03v-5.231c-2.487-1.621-9.174-2.093-9.246-2.099c-11.49-0.277-13.743,8.172-13.766,8.257
		l-0.042,0.23c-0.19,0.97-0.42,2.178-0.443,3.11c-0.064,2.998,0.821,5.724,2.496,7.677c1.423,1.658,3.581,2.675,5.479,3.573
		l0.345,0.16c0.666,0.316,1.364,0.588,2.039,0.855l0.247,0.097c0.805,0.319,1.76,0.705,2.708,1.158
		c3.119,1.511,6.318,3.528,6.428,7.091c0.065,2.148-0.895,4.459-2.385,5.742c-0.613,0.528-1.837,1.205-2.733,1.379
		c-3.095,0.594-6.321-0.117-9.16-1.242l0.001,0.002c-3.203-1.271-5.904-3.07-7.352-4.126l-0.001-0.003
		c-0.704-0.514-1.113-0.855-1.132-0.873c-9.779-8.342-18.975-10.008-19.068-10.026c-0.557-0.133-1.117-0.243-1.682-0.331v0
		c-1.65-0.268-3.327-0.366-5.007-0.332l0,0.001c-14.015,0.306-28.23,10.017-28.395,10.132c-0.802,0.396-4.977,0.31-5.155,0.305
		c-6.05,0.252-9.253,7.416-9.737,8.584c10.813,1.804,13.896-7.043,13.928-7.137c1.457-2.799,13.596-6.029,14.115-6.164
		c4.486-1.008,8.44-1.381,11.847-1.381c0.412,0,0.814,0.008,1.21,0.018l0.001-0.002c1.816,0.052,3.46,0.203,4.931,0.419
		c5.789,0.854,8.836,2.657,8.889,2.688c0.813,0.49,1.661,1.016,2.512,1.567c2.562,1.651,5.115,3.45,7.8,5.491
		c0.475,0.359,0.94,0.729,1.407,1.1c0.975,0.77,1.984,1.563,3.032,2.264c1.817,1.215,3.514,2.168,5.134,2.896l0,0.001
		c0.892,0.401,1.76,0.731,2.608,0.989l0.252,0.072c1.079,0.336,2.198,0.676,3.305,0.808c0.024,0.004,0.05,0.004,0.078,0.007l0-0.001
		c10.854,1.255,14.629-5.188,14.666-5.256c0.724-1.229,1.276-2.644,1.599-4.089C102.223,46.484,102.273,44.455,101.953,42.372z"/>
	<path fill="#009749" d="M34.476,35.092c0.526-0.881,3.384-6.1,0.456-11.15c-0.019-0.03-1.979-3.186-4.669-5.146
		c-0.17,0.846-0.813,4.044-1.082,5.13C29.163,23.982,27.844,29.374,34.476,35.092"/>
	<path fill="#009749" d="M27.989,38.055c0.171-0.999,0.917-6.601-3.337-10.483c-0.025-0.023-2.813-2.413-5.947-3.432
		c0.086,0.858,0.403,4.107,0.461,5.231C19.168,29.432,19.439,35.17,27.989,38.055"/>
	<path fill="#009749" d="M21.625,41.62c-0.275-0.959-2.036-6.311-7.515-7.78c-0.034-0.008-3.56-0.832-6.796-0.271
		c0.448,0.727,2.139,3.477,2.677,4.457C10.02,38.079,12.75,43.072,21.625,41.62"/>
	<path fill="#009749" d="M29.746,43.754c-4.499,8.11-0.994,12.544-0.958,12.588c0.68,0.875,2.543,3.508,3.033,4.203
		c1.667-2.943,2.194-6.66,2.199-6.697C34.668,48,30.506,44.363,29.746,43.754"/>
	<path fill="#009749" d="M18.619,57.313c0.385,1.058,1.36,4.162,1.618,4.979c2.466-2.251,4.087-5.615,4.102-5.646
		c2.376-5.342-0.485-10.149-1.026-10.978C16.613,51.9,18.599,57.261,18.619,57.313"/>
	<path fill="#0071B1" d="M127.002,12.767c-11.914,0-21.567,10.047-21.567,22.44c0,12.393,9.653,22.443,21.567,22.443
		S148.57,47.6,148.57,35.207C148.57,22.814,138.916,12.767,127.002,12.767 M127.002,53.509c-9.715,0-17.591-8.19-17.591-18.302
		c0-10.109,7.876-18.306,17.591-18.306c9.717,0,17.588,8.196,17.588,18.306C144.59,45.316,136.719,53.509,127.002,53.509"/>
	<rect x="105.434" y="34.89" fill="#0071B1" width="3.73" height="37.394"/>
	<rect x="151.941" y="12.974" fill="#0071B1" width="3.91" height="44.184"/>
	<rect x="151.941" y="3.717" fill="#0071B1" width="3.91" height="3.999"/>
	<path fill="#0071B1" d="M219.34,40.77c-2.26,7.387-8.91,12.739-16.76,12.739c-9.713,0-17.59-8.19-17.59-18.302
		c0-1.976,0.304-3.875,0.857-5.659h19.475h13.984h2.906h1.244c-0.318-1.253-0.732-2.463-1.244-3.622v-0.135h-0.059
		c-3.418-7.688-10.896-13.024-19.575-13.024c-8.679,0-16.153,5.336-19.575,13.024c-0.197,0.446-0.388,0.898-0.559,1.359
		c-0.922,2.5-1.436,5.216-1.436,8.057c0,12.395,9.654,22.443,21.568,22.443c10.064,0,18.523-7.18,20.9-16.881H219.34L219.34,40.77z
		 M202.58,16.901c6.404,0,12.009,3.564,15.083,8.89h-30.167C190.568,20.466,196.175,16.901,202.58,16.901"/>
	<path fill="#0071B1" d="M185.006,13.442v4.583c0,0-15.451-3.902-18.779,14.798V57.65h-4.047V33.454
		C162.18,33.454,162.18,11.653,185.006,13.442"/>
	<path fill="#009749" d="M37.606,41.805c0,0-2.064,5.579-1.02,9.112c0.262,0.886,0.789,2.688,1.752,3.622
		c0.938,0.91,3.063,3.67,3.063,3.67s1.556-3.502,1.733-6.846c0.092-1.748-0.156-3.771-2.224-6.641
		C39.574,42.866,37.606,41.805,37.606,41.805z"/>
</g>
</svg>
